<svg width="658" height="556" viewBox="0 0 658 556" fill="none" xmlns="http://www.w3.org/2000/svg">
  <path d="M441.39 382.267H425.457C428.584 378.158 430.52 372.492 430.52 366.4C430.52 353.508 422.182 343.167 411.758 343.167H35.1772C24.7538 343.167 16.4151 353.65 16.4151 366.4C16.4151 379.292 24.7538 389.633 35.1772 389.633H45.8983C47.5363 389.633 49.0254 390.058 50.2166 390.767C47.5363 394.733 45.8983 399.975 45.8983 405.5C45.8983 418.392 54.237 428.733 64.6604 428.733H75.3816C81.3378 428.733 86.1027 434.825 86.1027 442.333V442.475C86.1027 455.367 94.4414 465.708 104.865 465.708H372.447C382.871 465.708 391.209 455.225 391.209 442.475V442.333C391.209 434.967 395.974 428.733 401.93 428.733H441.39C451.814 428.733 460.152 418.25 460.152 405.5C460.152 392.608 451.814 382.267 441.39 382.267Z" fill="#E1ECFF88" />
  <path d="M414.29 255.758L213.714 183.225L210.885 316.108L388.38 395.158C392.996 397.283 398.357 394.308 398.952 389.492L414.29 255.758Z" fill="#FC7EC1" />
  <path d="M98.0151 362.292L210.885 316.108L213.714 183.225L79.2531 237.625L87.2939 356.058C87.7407 361.158 93.1012 364.275 98.0151 362.292Z" fill="#F969BB" />
  <path d="M213.714 183.225H172.766C165.022 183.225 157.428 184.783 150.43 187.758L38.602 234.792C35.6239 236.067 36.6662 240.317 39.9421 240.033L79.1042 237.625L213.714 183.225Z" fill="#FF97C9" />
  <path d="M213.714 183.225L414.29 255.758H435.881C438.412 255.758 439.008 252.358 436.625 251.508L248.558 185.35C244.687 183.933 240.517 183.225 236.348 183.225H213.714Z" fill="#FF97C9" />
  <path d="M261.96 347.417L247.218 387.508C247.218 387.508 219.522 360.733 196.144 314.692C190.187 303.075 187.954 290.75 187.805 278.992C187.358 249.383 201.057 223.458 207.163 222.892C213.565 222.325 205.227 246.55 207.46 270.917C208.205 278.992 209.992 286.925 213.863 294.15C233.817 331.408 261.96 347.417 261.96 347.417Z" fill="#FF8D76" />
  <path d="M207.311 270.917C202.695 273.608 194.803 277.575 187.656 278.85C187.209 249.242 200.909 223.317 207.014 222.75C213.417 222.325 205.227 246.55 207.311 270.917Z" fill="#FED3D4" />
  <path d="M359.046 359.458C357.855 388.217 334.179 412.583 302.611 416.833C297.399 417.542 291.89 417.967 285.933 417.967C280.126 417.967 274.914 417.825 270.001 417.258C240.368 414.283 216.99 393.033 213.417 366.4C209.992 340.617 207.609 302.083 218.479 276.017C221.16 269.5 224.882 263.975 229.201 259.158C244.091 243.008 266.427 237.2 283.998 236.917C301.717 236.633 326.584 240.883 342.368 257.317C349.665 264.825 355.025 274.883 356.961 288.342C360.088 310.583 359.939 338.208 359.046 359.458Z" fill="#FEA691" />
  <path d="M283.7 390.908C312.29 391.333 332.838 379.858 334.774 350.675C336.71 321.492 341.177 274.317 285.933 273.183C230.69 272.05 236.497 325.033 236.05 344.867C235.603 364.7 248.409 390.342 283.7 390.908Z" fill="#FED3D4" />
  <path d="M342.22 257.458C327.031 264.825 306.333 269.5 283.551 269.5C262.704 269.5 243.644 265.675 229.052 259.442C243.942 243.292 266.278 237.483 283.849 237.2C301.568 236.775 326.436 241.025 342.22 257.458Z" fill="#FF8D76" />
  <path d="M79.2531 237.625L87.294 355.775C87.7407 362.433 91.7611 368.383 98.0151 371.5L271.638 458.908L274.319 316.392L79.2531 237.625Z" fill="#FF97C9" />
  <path d="M84.3159 312.283L226.669 378.3C234.114 381.7 242.9 379.575 247.665 373.2L274.17 337.217V316.392L79.1042 237.625L84.3159 312.283Z" fill="#FC7EC1" />
  <path d="M59.1509 290.042L228.456 365.975C233.37 368.242 239.177 366.683 242.304 362.292L274.468 316.392L79.402 237.625L54.6838 275.025C50.9612 280.408 53.1947 287.35 59.1509 290.042Z" fill="#FF97C9" />
  <path d="M385.998 405.075L271.638 458.908L274.319 316.392L414.29 255.758L399.25 387.083C398.357 394.875 393.294 401.533 385.998 405.075Z" fill="#FC7EC1" />
  <path d="M274.319 337.217L290.103 369.8C293.974 377.733 303.951 380.992 312.141 377.167L405.653 332.258L414.438 255.9L274.468 316.533V337.217H274.319Z" fill="#F969BB" />
  <path d="M301.568 362.292L274.319 316.392L414.29 255.758L439.752 296.417C442.284 300.383 440.646 305.625 436.327 307.608L312.587 365.408C308.567 367.25 303.802 365.833 301.568 362.292Z" fill="#FF97C9" />
  <path d="M446.751 178.125C446.453 183.792 439.752 216.233 406.249 243.575C374.979 269.075 332.69 288.483 332.69 288.483L330.307 228.7C330.307 228.7 368.725 217.933 391.209 199.375C413.694 180.817 421.586 162.542 427.244 160.275C429.627 159.283 431.712 159.425 433.201 159.708C435.285 160.133 436.477 161.267 436.477 161.267C436.477 161.267 436.625 161.267 436.923 161.125C437.966 160.842 440.497 160.558 442.879 163.108C444.517 164.808 444.071 169.767 444.071 169.767C444.071 169.767 445.857 171.467 446.304 175.008C446.751 176 446.9 176.992 446.751 178.125Z" fill="#FEA691" />
  <path d="M416.545 204.012C421.567 206.846 428.63 204.344 432.323 198.423C436.015 192.501 434.938 185.404 429.916 182.57C424.895 179.735 417.831 182.238 414.138 188.159C410.446 194.08 411.524 201.178 416.545 204.012Z" fill="#FED3D4" />
  <path d="M437.221 161.267C436.923 162.542 436.328 164.667 434.987 167.783C432.605 173.167 430.818 175.575 429.925 175.858C427.691 176.708 427.393 173.733 429.627 169.625C431.265 166.367 432.754 161.692 433.349 159.85C435.434 160.275 436.625 161.408 436.625 161.408C436.625 161.408 436.923 161.267 437.221 161.267Z" fill="#FF8D76" />
  <path d="M446.751 175.15C446.453 175.717 446.304 176.283 446.006 176.992C443.475 182.375 441.539 184.642 440.646 184.925C438.412 185.633 438.263 182.8 440.497 178.692C442.879 174.583 444.517 169.908 444.517 169.908C444.517 169.908 446.155 171.608 446.751 175.15Z" fill="#FF8D76" />
  <path d="M334.477 287.917C333.732 287.917 332.987 287.492 332.69 286.783C332.243 285.792 332.69 284.658 333.732 284.233C334.03 284.092 369.618 269.358 399.846 245.7C438.114 215.808 442.879 185.775 442.879 185.492C443.028 184.5 444.071 183.65 445.113 183.792C446.155 183.933 447.049 184.925 446.9 185.917C446.751 187.192 441.986 217.508 402.377 248.533C371.703 272.475 335.817 287.492 335.37 287.633C335.072 287.775 334.774 287.917 334.477 287.917Z" fill="#FF8D76" />
  <path d="M300.228 115.225C300.228 115.225 315.119 83.0667 323.904 81.5083C332.541 79.95 337.008 100.208 340.582 117.067C344.304 133.925 345.198 147.95 345.198 147.95L300.228 115.225Z" fill="#FEA691" />
  <path d="M307.971 115.083C307.971 115.083 317.799 94.1167 323.457 93.125C329.116 92.1333 331.945 105.45 334.328 116.358C336.71 127.408 337.455 136.475 337.455 136.475L307.971 115.083Z" fill="#FED3D4" />
  <path d="M268.66 115.225C268.66 115.225 253.77 83.0667 244.985 81.5083C236.348 79.95 231.881 100.208 228.307 117.067C224.733 133.925 223.691 147.95 223.691 147.95L268.66 115.225Z" fill="#FEA691" />
  <path d="M260.917 115.083C260.917 115.083 251.09 94.1167 245.431 93.125C239.773 92.1333 236.944 105.45 234.561 116.358C232.179 127.408 231.434 136.475 231.434 136.475L260.917 115.083Z" fill="#FED3D4" />
  <path d="M349.516 203.625L310.503 202.633L254.068 201.217L217.884 200.367C217.884 200.367 216.246 152.058 230.987 128.825C238.73 116.5 253.174 107.858 269.107 104.317C277.148 102.475 285.636 101.908 293.825 102.9C304.547 104.175 314.821 108 322.862 114.8C348.92 136.758 346.24 157.158 347.878 174.017C349.516 190.875 349.516 203.625 349.516 203.625Z" fill="#FEA691" />
  <path d="M310.503 202.633L254.068 201.217C257.046 193.992 262.257 178.975 265.236 158.575C268.214 138.742 268.809 116.642 268.958 104.317C276.999 102.475 285.487 101.908 293.676 102.9C293.825 114.375 294.719 134.35 298.292 156.733C302.313 181.667 307.822 196.4 310.503 202.633Z" fill="#FED3D4" />
  <path d="M354.876 217.65C354.876 241.025 323.011 260.008 283.7 260.008C244.389 260.008 212.523 241.025 212.523 217.65C212.523 188.608 244.389 175.292 283.7 175.292C323.011 175.292 354.876 190.025 354.876 217.65Z" fill="#FED3D4" />
  <path d="M265.831 191.725C269.703 186.483 298.441 184.642 302.462 190.45C306.482 196.117 295.91 208.442 285.636 208.442C275.361 208.442 260.62 198.667 265.831 191.725Z" fill="#32324D" />
  <path d="M233.966 127.408C233.519 127.408 233.072 127.267 232.774 126.983C231.881 126.417 231.732 125.142 232.328 124.292C232.476 124.008 237.39 117.917 245.878 112.675C256.003 106.3 261.215 105.025 261.364 105.025C262.406 104.742 263.598 105.308 263.747 106.442C264.044 107.433 263.449 108.567 262.257 108.708C262.257 108.708 257.344 109.983 247.963 115.933C240.071 120.892 235.306 126.7 235.306 126.7C235.157 127.125 234.561 127.408 233.966 127.408Z" fill="#FF8D76" />
  <path d="M332.243 127.408C332.69 127.408 333.136 127.267 333.434 126.983C334.328 126.417 334.476 125.142 333.881 124.292C333.732 124.008 328.818 117.917 320.33 112.675C310.205 106.3 304.993 105.025 304.844 105.025C303.802 104.742 302.611 105.308 302.462 106.442C302.164 107.433 302.76 108.567 303.951 108.708C303.951 108.708 308.865 109.983 318.246 115.933C326.138 120.892 330.903 126.7 330.903 126.7C331.052 127.125 331.647 127.408 332.243 127.408Z" fill="#FF8D76" />
  <path d="M269.554 229.125C269.554 229.125 281.02 227.992 286.529 219.492C293.081 228.133 302.611 226.15 302.611 226.15C302.611 226.15 304.547 243.15 288.316 244.425C271.192 245.842 269.554 229.125 269.554 229.125Z" fill="#FF6EA9" />
  <path d="M286.38 238.9C285.189 238.758 284.146 237.767 284.295 236.633C284.444 230.967 283.998 220.908 283.998 220.767C283.998 219.492 284.891 218.5 286.231 218.5C287.422 218.5 288.614 219.35 288.614 220.625C288.614 221.05 289.06 231.108 288.911 236.917C288.763 237.908 287.72 238.9 286.38 238.9C286.529 238.9 286.38 238.9 286.38 238.9Z" fill="#EA4E95" />
  <path d="M267.767 231.392C260.768 231.392 255.408 228.983 255.259 228.842C253.919 228.275 253.472 226.717 254.068 225.442C254.663 224.167 256.301 223.742 257.641 224.308C258.237 224.592 273.723 231.675 284.444 218.075C284.891 217.367 285.784 217.083 286.529 217.083C287.422 217.083 288.167 217.508 288.614 218.217C295.761 227.992 310.205 223.033 310.801 222.892C312.141 222.467 313.63 223.033 314.225 224.308C314.672 225.583 314.076 227 312.736 227.567C306.78 229.692 294.421 231.25 286.529 223.6C280.424 229.692 273.574 231.392 267.767 231.392Z" fill="#32324D" />
  <path d="M314.97 172.6C318.588 172.6 321.522 169.302 321.522 165.233C321.522 161.165 318.588 157.867 314.97 157.867C311.351 157.867 308.418 161.165 308.418 165.233C308.418 169.302 311.351 172.6 314.97 172.6Z" fill="#32324D" />
  <path d="M248.856 172.6C252.474 172.6 255.408 169.302 255.408 165.233C255.408 161.165 252.474 157.867 248.856 157.867C245.238 157.867 242.304 161.165 242.304 165.233C242.304 169.302 245.238 172.6 248.856 172.6Z" fill="#32324D" />
  <path d="M303.951 142.567C305.142 138.742 312.29 139.167 317.501 140.867C322.713 142.567 326.882 145.825 325.691 147.808C324.5 149.933 301.568 149.933 303.951 142.567Z" fill="#FED3D4" />
  <path d="M257.344 142.425C256.003 138.6 248.856 139.167 243.644 141.008C238.433 142.85 234.412 146.108 235.752 148.092C237.093 150.075 260.024 149.65 257.344 142.425Z" fill="#FED3D4" />
  <path d="M639.732 420.942L563.641 446.017L528.5 457.633L520.012 460.467L458.068 480.867C449.282 483.842 439.455 481.717 432.605 475.625L424.713 468.4C420.246 464.292 420.544 457.633 424.564 453.808C425.606 452.817 426.947 451.967 428.436 451.542L609.802 391.475C615.163 389.775 620.97 390.767 625.139 394.308L641.966 408.192C642.561 408.617 643.008 409.183 643.455 409.75C646.433 413.717 644.795 419.242 639.732 420.942Z" fill="#BDA9F5" />
  <path d="M595.06 501.692L509.887 527.617C501.995 530.025 493.358 528.325 487.104 523.083L479.212 516.425C474.894 512.883 474.596 507.075 477.425 503.108C478.766 501.267 480.701 499.85 483.084 499.142L539.519 482.992C539.966 482.85 540.263 482.708 540.561 482.425C542.348 481.15 542.497 478.742 540.71 477.183L520.012 460.325L513.312 454.942L512.12 453.95C505.568 448.708 507.951 438.508 516.29 436.525L545.326 429.3L563.641 446.017L600.421 479.45C601.612 480.442 602.506 481.717 603.101 482.992C606.973 489.933 603.548 499.142 595.06 501.692Z" fill="#BDA9F5" />
  <path d="M540.71 482.425C542.497 481.15 542.646 478.742 540.859 477.183L520.161 460.325L458.217 480.725C449.431 483.7 439.603 481.575 432.754 475.483L424.862 468.258C420.395 464.15 420.693 457.492 424.713 453.667C428.584 459.05 441.986 471.517 450.771 471.8C459.259 472.083 521.65 450.975 521.65 450.975C521.65 450.975 548.9 473.075 549.942 474.208C552.771 477.042 545.475 481.292 540.71 482.425Z" fill="#7A52EA" />
  <path d="M639.732 420.942L563.641 446.017L555.601 438.933C555.601 438.933 630.351 413.15 640.03 410.6C641.37 410.317 642.561 410.033 643.752 409.75C646.433 413.717 644.795 419.242 639.732 420.942Z" fill="#7A52EA" />
  <path d="M595.06 501.692L509.887 527.617C501.995 530.025 493.358 528.325 487.104 523.083L479.212 516.425C474.894 512.883 474.596 507.075 477.425 503.108C484.126 507.5 497.825 516.567 501.25 517.417C505.717 518.408 524.033 512.742 543.986 505.942C563.939 499.142 596.698 486.533 603.25 483.133C606.973 489.933 603.548 499.142 595.06 501.692Z" fill="#7A52EA" />
  <path d="M606.824 300.667C603.995 292.308 596.55 284.8 582.404 278.283C538.328 257.883 490.529 299.533 462.088 328.717C447.793 343.45 438.71 356.767 436.625 368.383C434.541 379.858 439.306 389.492 452.856 396.575C504.973 424.058 550.389 388.075 578.532 358.892C597.294 338.917 612.78 318.233 606.824 300.667ZM544.879 338.208C518.821 360.45 495.89 379.717 477.574 369.658C476.085 368.808 475.043 367.817 474.447 366.542C471.469 360.025 481.446 347.842 504.824 329.283C532.669 307.042 548.9 295.142 563.195 300.242C566.768 301.517 569.002 303.075 569.895 305.058C573.022 311.15 564.535 321.35 544.879 338.208Z" fill="#BDA9F5" />
  <path d="M578.234 358.75C550.091 388.075 504.675 424.058 452.558 396.433C439.008 389.35 434.243 379.717 436.328 368.242C440.497 376.033 449.133 386.233 467.002 390.908C497.825 398.983 529.393 391.333 562.003 361.3C590.593 334.808 600.272 314.833 606.675 300.667C612.78 318.233 597.294 338.917 578.234 358.75Z" fill="#7A52EA" />
  <path d="M569.895 304.917C568.853 302.933 566.619 301.375 563.195 300.1C548.9 295 532.669 306.9 504.824 329.142C481.446 347.842 471.469 359.883 474.447 366.4C472.958 365.267 471.32 363.142 470.725 358.608C469.682 350.108 475.192 341.892 491.274 327.725C507.355 313.558 530.436 295.567 544.582 292.733C558.579 290.042 568.406 296.983 569.747 302.508C569.895 303.358 569.895 304.067 569.895 304.917Z" fill="#7A52EA" />
  <path d="M482.935 257.033L469.533 262.983C461.79 266.383 452.409 263.125 448.984 255.617L378.106 101.767C376.021 97.0917 377.063 91.85 380.488 88.3084C381.679 87.0334 383.168 86.0417 384.806 85.3333L401.782 78.1083C408.482 75.275 416.225 78.1083 419.203 84.4833L490.529 237.908C491.273 239.325 491.571 240.883 491.72 242.442C492.316 248.392 489.04 254.342 482.935 257.033Z" fill="#BDA9F5" />
  <path d="M525.968 140.725L458.812 169.483L444.517 175.575L420.99 144.125L475.192 120.75C475.936 120.467 476.532 120.042 477.127 119.475C479.51 117.35 479.957 113.667 477.723 110.975L450.473 78.25C446.155 73.0083 446.751 65.925 450.92 61.25C452.26 59.6917 454.047 58.5583 456.132 57.7083L467.151 53.6C472.809 51.475 479.361 53.0333 483.233 57.7083L532.222 116.5C532.818 117.208 533.265 117.917 533.711 118.767C538.178 126.7 534.903 136.758 525.968 140.725Z" fill="#BDA9F5" />
  <path d="M525.968 140.725L458.812 169.483L453.154 158.15C453.154 158.15 509.291 136.475 523.735 128.542C529.095 125.567 532.073 122.025 533.711 118.767C538.179 126.7 534.903 136.758 525.968 140.725Z" fill="#7A52EA" />
  <path d="M482.935 257.033L469.533 262.983C461.79 266.383 452.409 263.125 448.984 255.617L378.106 101.767C376.021 97.0917 377.063 91.85 380.488 88.3083C394.783 118.342 457.919 250.942 458.663 252.783C459.557 254.908 459.855 256.325 466.257 253.633C472.214 251.083 486.657 245.983 491.869 242.442C492.316 248.392 489.04 254.342 482.935 257.033Z" fill="#7A52EA" />
  <path d="M476.979 119.617C479.361 117.492 479.808 113.808 477.574 111.117L450.325 78.3917C446.006 73.15 446.602 66.0667 450.771 61.3917C456.579 68.6167 485.764 104.6 488.444 109.275C490.529 112.675 482.637 117.067 476.979 119.617Z" fill="#7A52EA" />
  <path d="M198.377 115.083C202.736 115.083 206.269 111.722 206.269 107.575C206.269 103.428 202.736 100.067 198.377 100.067C194.019 100.067 190.485 103.428 190.485 107.575C190.485 111.722 194.019 115.083 198.377 115.083Z" fill="#BDA9F5" />
  <path d="M198.377 85.7583C202.736 85.7583 206.269 82.3967 206.269 78.25C206.269 74.1033 202.736 70.7417 198.377 70.7417C194.019 70.7417 190.485 74.1033 190.485 78.25C190.485 82.3967 194.019 85.7583 198.377 85.7583Z" fill="#BDA9F5" />
  <path d="M198.377 56.4333C202.736 56.4333 206.269 53.0717 206.269 48.925C206.269 44.7783 202.736 41.4167 198.377 41.4167C194.019 41.4167 190.485 44.7783 190.485 48.925C190.485 53.0717 194.019 56.4333 198.377 56.4333Z" fill="#BDA9F5" />
</svg>
